GCE/src/main/resources/tech/houssemnasri/gce/lw_wave.vcd
$date
  Mon May 08 23:53:33 2023
$end
$version
  GHDL v0
$end
$timescale
  1 fs
$end
$scope module standard $end
$upscope $end
$scope module textio $end
$upscope $end
$scope module std_logic_1164 $end
$upscope $end
$scope module numeric_std $end
$upscope $end
$scope module lw_tb $end
$var reg 32 ! pc[31:0] $end
$var reg 1 " clk $end
$var reg 32 # extend_out[31:0] $end
$var reg 32 $ alu_result[31:0] $end
$var reg 3 % alu_control[2:0] $end
$var reg 32 & readdata[31:0] $end
$var reg 1 ' immsrc $end
$var reg 1 ( memwrite $end
$var reg 1 ) regwrite $end
$var reg 32 * rd1[31:0] $end
$scope module uut $end
$var reg 32 + pc[31:0] $end
$var reg 32 , extend_out[31:0] $end
$var reg 1 - clk $end
$var reg 3 . alu_control[2:0] $end
$var reg 32 / alu_result[31:0] $end
$var reg 32 0 readdata[31:0] $end
$var reg 1 1 immsrc $end
$var reg 1 2 memwrite $end
$var reg 1 3 regwrite $end
$var reg 32 4 rd1[31:0] $end
$var reg 32 5 currentinstruction[31:0] $end
$var reg 5 6 register_a1[4:0] $end
$var reg 5 7 register_a2[4:0] $end
$var reg 5 8 register_a3[4:0] $end
$var reg 32 9 register_data[31:0] $end
$var reg 32 : register_rd1[31:0] $end
$var reg 32 ; register_rd2[31:0] $end
$var reg 32 < data_data[31:0] $end
$var reg 32 = aluresult[31:0] $end
$var reg 12 > extend_in[11:0] $end
$scope module instuctionmemory $end
$var reg 32 ? pcnext[31:0] $end
$var reg 32 @ instr[31:0] $end
$comment memory is not handled $end
$upscope $end
$scope module extendunit $end
$var reg 12 A a[11:0] $end
$var reg 32 B s[31:0] $end
$upscope $end
$scope module reg $end
$var reg 5 C a1[4:0] $end
$var reg 5 D a2[4:0] $end
$var reg 5 E a3[4:0] $end
$var reg 32 F data[31:0] $end
$var reg 1 G iswriteenable $end
$var reg 1 H clk $end
$var reg 32 I rd1[31:0] $end
$var reg 32 J rd2[31:0] $end
$comment registers is not handled $end
$upscope $end
$scope module alu_unit $end
$var reg 32 K a[31:0] $end
$var reg 32 L b[31:0] $end
$var reg 3 M alucontrol[2:0] $end
$var reg 32 N s[31:0] $end
$var reg 1 O sltresult $end
$upscope $end
$scope module data_memory $end
$var reg 32 P address[31:0] $end
$var reg 1 Q iswriteenable $end
$var reg 1 R clk $end
$var reg 32 S writedata[31:0] $end
$var reg 32 T readdata[31:0] $end
$comment memory is not handled $end
$upscope $end
$upscope $end
$upscope $end
$enddefinitions $end
#0
b00000000000000000000000000000000 !
0"
b11111111111111111111111111111100 #
b00000000000000000010000000000000 $
b000 %
bUUUUUUUUUUUUUUUUUUUUUUUUUUUUUUUU &
0'
0(
1)
b00000000000000000010000000000100 *
b00000000000000000000000000000000 +
b11111111111111111111111111111100 ,
0-
b000 .
b00000000000000000010000000000000 /
bUUUUUUUUUUUUUUUUUUUUUUUUUUUUUUUU 0
01
02
13
b00000000000000000010000000000100 4
b11111111110001001010001100000011 5
b01001 6
b11100 7
bUUUUU 8
bUUUUUUUUUUUUUUUUUUUUUUUUUUUUUUUU 9
b00000000000000000010000000000100 :
b00000000000000000000000000000000 ;
bUUUUUUUUUUUUUUUUUUUUUUUUUUUUUUUU <
b00000000000000000010000000000000 =
b111111111100 >
b00000000000000000000000000000000 ?
b11111111110001001010001100000011 @
b111111111100 A
b11111111111111111111111111111100 B
b01001 C
b11100 D
b00110 E
bUUUUUUUUUUUUUUUUUUUUUUUUUUUUUUUU F
1G
0H
b00000000000000000010000000000100 I
b00000000000000000000000000000000 J
b00000000000000000010000000000100 K
b11111111111111111111111111111100 L
b000 M
b00000000000000000010000000000000 N
0O
b00000000000000000010000000000000 P
0Q
0R
b00000000000000000000000000000000 S
bUUUUUUUUUUUUUUUUUUUUUUUUUUUUUUUU T
#10000000
b00000000000000000000000000000001 !
1"
b00000000000000000000000000000110 #
b00000000000000000010000000001010 $
b00000000000000000000000000001010 &
b00000000000000000000000000000001 +
b00000000000000000000000000000110 ,
1-
b00000000000000000010000000001010 /
b00000000000000000000000000001010 0
b00000000011001001010010000100011 5
b00110 7
bUUUUUUUUUUUUUUUUUUUUUUUUUUUUUUUU ;
b00000000000000000010000000001010 =
b000000000110 >
b00000000000000000000000000000001 ?
b00000000011001001010010000100011 @
b000000000110 A
b00000000000000000000000000000110 B
b00110 D
b01000 E
b00000000000000000000000000001010 F
1H
bUUUUUUUUUUUUUUUUUUUUUUUUUUUUUUUU J
b00000000000000000000000000000110 L
b00000000000000000010000000001010 N
b00000000000000000010000000001010 P
1R
bUUUUUUUUUUUUUUUUUUUUUUUUUUUUUUUU S
b00000000000000000000000000001010 T
#20000000
0"
0-
0H
0R
#30000000
b00000000000000000000000000000010 !
1"
b00000000000000000000000000000000 #
b00000000000000000000000000000000 $
b00000000000000000000000000000000 &
b00000000000000000000000000000000 *
b00000000000000000000000000000010 +
b00000000000000000000000000000000 ,
1-
b00000000000000000000000000000000 /
b00000000000000000000000000000000 0
b00000000000000000000000000000000 4
b00000000000000000000000000000000 5
b00000 6
b00000 7
b00000000000000000000000000000000 :
b00000000000000000000000000000000 ;
b00000000000000000000000000000000 =
b000000000000 >
b00000000000000000000000000000010 ?
b00000000000000000000000000000000 @
b000000000000 A
b00000000000000000000000000000000 B
b00000 C
b00000 D
b00000 E
b00000000000000000000000000000000 F
1H
b00000000000000000000000000000000 I
b00000000000000000000000000000000 J
b00000000000000000000000000000000 K
b00000000000000000000000000000000 L
b00000000000000000000000000000000 N
b00000000000000000000000000000000 P
1R
b00000000000000000000000000000000 S
b00000000000000000000000000000000 T
#40000000
0"
0-
0H
0R
#50000000
b00000000000000000000000000000011 !
1"
b00000000000000000000000000000011 +
1-
b00000000000000000000000000000011 ?
1H
1R
#60000000
0"
0-
0H
0R
#70000000
b00000000000000000000000000000100 !
1"
b00000000000000000000000000000100 +
1-
b00000000000000000000000000000100 ?
1H
1R
#80000000
0"
0-
0H
0R
#90000000
b00000000000000000000000000000101 !
1"
b00000000000000000000000000000101 +
1-
b00000000000000000000000000000101 ?
1H
1R
#100000000
0"
0-
0H
0R
#110000000
b00000000000000000000000000000110 !
1"
b00000000000000000000000000000110 +
1-
b00000000000000000000000000000110 ?
1H
1R
#120000000
0"
0-
0H
0R
#130000000
b00000000000000000000000000000111 !
1"
b00000000000000000000000000000111 +
1-
b00000000000000000000000000000111 ?
1H
1R
#140000000
0"
0-
0H
0R
#150000000
b00000000000000000000000000001000 !
1"
b00000000000000000000000000001000 +
1-
b00000000000000000000000000001000 ?
1H
1R
#160000000
0"
0-
0H
0R
#170000000
b00000000000000000000000000001001 !
1"
b00000000000000000000000000001001 +
1-
b00000000000000000000000000001001 ?
1H
1R
#180000000
0"
0-
0H
0R
#190000000
b00000000000000000000000000001010 !
1"
b00000000000000000000000000001010 +
1-
b00000000000000000000000000001010 ?
1H
1R
#200000000
0"
0-
0H
0R
#210000000
b00000000000000000000000000001011 !
1"
b00000000000000000000000000001011 +
1-
b00000000000000000000000000001011 ?
1H
1R
#220000000
0"
0-
0H
0R
#230000000
b00000000000000000000000000001100 !
1"
b00000000000000000000000000001100 +
1-
b00000000000000000000000000001100 ?
1H
1R
#240000000
0"
0-
0H
0R
#250000000
b00000000000000000000000000001101 !
1"
b00000000000000000000000000001101 +
1-
b00000000000000000000000000001101 ?
1H
1R
#260000000
0"
0-
0H
0R
#270000000
b00000000000000000000000000001110 !
1"
b00000000000000000000000000001110 +
1-
b00000000000000000000000000001110 ?
1H
1R
#280000000
0"
0-
0H
0R
#290000000
b00000000000000000000000000001111 !
1"
b00000000000000000000000000001111 +
1-
b00000000000000000000000000001111 ?
1H
1R
#300000000
0"
0-
0H
0R
#310000000
b00000000000000000000000000010000 !
1"
b00000000000000000000000000010000 +
1-
b00000000000000000000000000010000 ?
1H
1R
#320000000
0"
0-
0H
0R
#330000000
b00000000000000000000000000010001 !
1"
b00000000000000000000000000010001 +
1-
b00000000000000000000000000010001 ?
1H
1R
#340000000
0"
0-
0H
0R
#350000000
b00000000000000000000000000010010 !
1"
b00000000000000000000000000010010 +
1-
b00000000000000000000000000010010 ?
1H
1R
#360000000
0"
0-
0H
0R
#370000000
b00000000000000000000000000010011 !
1"
b00000000000000000000000000010011 +
1-
b00000000000000000000000000010011 ?
1H
1R
#380000000
0"
0-
0H
0R
#390000000
b00000000000000000000000000010100 !
1"
b00000000000000000000000000010100 +
1-
b00000000000000000000000000010100 ?
1H
1R
#400000000
0"
0-
0H
0R
#410000000
b00000000000000000000000000010101 !
1"
b00000000000000000000000000010101 +
1-
b00000000000000000000000000010101 ?
1H
1R
#420000000
0"
0-
0H
0R
#430000000
b00000000000000000000000000010110 !
1"
b00000000000000000000000000010110 +
1-
b00000000000000000000000000010110 ?
1H
1R
#440000000
0"
0-
0H
0R
#450000000
b00000000000000000000000000010111 !
1"
b00000000000000000000000000010111 +
1-
b00000000000000000000000000010111 ?
1H
1R
#460000000
0"
0-
0H
0R
#470000000
b00000000000000000000000000011000 !
1"
b00000000000000000000000000011000 +
1-
b00000000000000000000000000011000 ?
1H
1R
#480000000
0"
0-
0H
0R
#490000000
b00000000000000000000000000011001 !
1"
b00000000000000000000000000011001 +
1-
b00000000000000000000000000011001 ?
1H
1R
#500000000
0"
0-
0H
0R
#510000000
b00000000000000000000000000011010 !
1"
b00000000000000000000000000011010 +
1-
b00000000000000000000000000011010 ?
1H
1R
#520000000
0"
0-
0H
0R
#530000000
b00000000000000000000000000011011 !
1"
b00000000000000000000000000011011 +
1-
b00000000000000000000000000011011 ?
1H
1R
#540000000
0"
0-
0H
0R
#550000000
b00000000000000000000000000011100 !
1"
b00000000000000000000000000011100 +
1-
b00000000000000000000000000011100 ?
1H
1R
#560000000
0"
0-
0H
0R
#570000000
b00000000000000000000000000011101 !
1"
b00000000000000000000000000011101 +
1-
b00000000000000000000000000011101 ?
1H
1R
#580000000
0"
0-
0H
0R
#590000000
b00000000000000000000000000011110 !
1"
b00000000000000000000000000011110 +
1-
b00000000000000000000000000011110 ?
1H
1R
#600000000
0"
0-
0H
0R
#610000000
b00000000000000000000000000011111 !
1"
b00000000000000000000000000011111 +
1-
b00000000000000000000000000011111 ?
1H
1R
#620000000
0"
0-
0H
0R
#630000000
b00000000000000000000000000100000 !
1"
b00000000000000000000000000100000 +
1-
b00000000000000000000000000100000 ?
1H
1R
#640000000
0"
0-
0H
0R
#650000000
b00000000000000000000000000100001 !
1"
b00000000000000000000000000100001 +
1-
b00000000000000000000000000100001 ?
1H
1R
#660000000
0"
0-
0H
0R
#670000000
b00000000000000000000000000100010 !
1"
b00000000000000000000000000100010 +
1-
b00000000000000000000000000100010 ?
1H
1R
#680000000
0"
0-
0H
0R
#690000000
b00000000000000000000000000100011 !
1"
b00000000000000000000000000100011 +
1-
b00000000000000000000000000100011 ?
1H
1R
#700000000
0"
0-
0H
0R
#710000000
b00000000000000000000000000100100 !
1"
b00000000000000000000000000100100 +
1-
b00000000000000000000000000100100 ?
1H
1R
#720000000
0"
0-
0H
0R
#730000000
b00000000000000000000000000100101 !
1"
b00000000000000000000000000100101 +
1-
b00000000000000000000000000100101 ?
1H
1R
#740000000
0"
0-
0H
0R
#750000000
b00000000000000000000000000100110 !
1"
b00000000000000000000000000100110 +
1-
b00000000000000000000000000100110 ?
1H
1R
#760000000
0"
0-
0H
0R
#770000000
b00000000000000000000000000100111 !
1"
b00000000000000000000000000100111 +
1-
b00000000000000000000000000100111 ?
1H
1R
#780000000
0"
0-
0H
0R
#790000000
b00000000000000000000000000101000 !
1"
b00000000000000000000000000101000 +
1-
b00000000000000000000000000101000 ?
1H
1R
#800000000
0"
0-
0H
0R
#810000000
b00000000000000000000000000101001 !
1"
b00000000000000000000000000101001 +
1-
b00000000000000000000000000101001 ?
1H
1R
#820000000
0"
0-
0H
0R
#830000000
b00000000000000000000000000101010 !
1"
b00000000000000000000000000101010 +
1-
b00000000000000000000000000101010 ?
1H
1R
#840000000
0"
0-
0H
0R
#850000000
b00000000000000000000000000101011 !
1"
b00000000000000000000000000101011 +
1-
b00000000000000000000000000101011 ?
1H
1R
#860000000
0"
0-
0H
0R
#870000000
b00000000000000000000000000101100 !
1"
b00000000000000000000000000101100 +
1-
b00000000000000000000000000101100 ?
1H
1R
#880000000
0"
0-
0H
0R
#890000000
b00000000000000000000000000101101 !
1"
b00000000000000000000000000101101 +
1-
b00000000000000000000000000101101 ?
1H
1R
#900000000
0"
0-
0H
0R
#910000000
b00000000000000000000000000101110 !
1"
b00000000000000000000000000101110 +
1-
b00000000000000000000000000101110 ?
1H
1R
#920000000
0"
0-
0H
0R
#930000000
b00000000000000000000000000101111 !
1"
b00000000000000000000000000101111 +
1-
b00000000000000000000000000101111 ?
1H
1R
#940000000
0"
0-
0H
0R
#950000000
b00000000000000000000000000110000 !
1"
b00000000000000000000000000110000 +
1-
b00000000000000000000000000110000 ?
1H
1R
#960000000
0"
0-
0H
0R
#970000000
b00000000000000000000000000110001 !
1"
b00000000000000000000000000110001 +
1-
b00000000000000000000000000110001 ?
1H
1R
#980000000
0"
0-
0H
0R
#990000000
b00000000000000000000000000110010 !
1"
b00000000000000000000000000110010 +
1-
b00000000000000000000000000110010 ?
1H
1R
#1000000000
0"
0-
0H
0R
#1010000000
b00000000000000000000000000110011 !
1"
b00000000000000000000000000110011 +
1-
b00000000000000000000000000110011 ?
1H
1R
#1020000000
0"
0-
0H
0R
#1030000000
b00000000000000000000000000110100 !
1"
b00000000000000000000000000110100 +
1-
b00000000000000000000000000110100 ?
1H
1R
#1040000000
0"
0-
0H
0R
#1050000000
b00000000000000000000000000110101 !
1"
b00000000000000000000000000110101 +
1-
b00000000000000000000000000110101 ?
1H
1R
#1060000000
0"
0-
0H
0R
#1070000000
b00000000000000000000000000110110 !
1"
b00000000000000000000000000110110 +
1-
b00000000000000000000000000110110 ?
1H
1R
#1080000000
0"
0-
0H
0R
#1090000000
b00000000000000000000000000110111 !
1"
b00000000000000000000000000110111 +
1-
b00000000000000000000000000110111 ?
1H
1R
#1100000000
0"
0-
0H
0R
#1110000000
b00000000000000000000000000111000 !
1"
b00000000000000000000000000111000 +
1-
b00000000000000000000000000111000 ?
1H
1R
#1120000000
0"
0-
0H
0R
#1130000000
b00000000000000000000000000111001 !
1"
b00000000000000000000000000111001 +
1-
b00000000000000000000000000111001 ?
1H
1R
#1140000000
0"
0-
0H
0R
#1150000000
b00000000000000000000000000111010 !
1"
b00000000000000000000000000111010 +
1-
b00000000000000000000000000111010 ?
1H
1R
#1160000000
0"
0-
0H
0R
#1170000000
b00000000000000000000000000111011 !
1"
b00000000000000000000000000111011 +
1-
b00000000000000000000000000111011 ?
1H
1R
#1180000000
0"
0-
0H
0R
#1190000000
b00000000000000000000000000111100 !
1"
b00000000000000000000000000111100 +
1-
b00000000000000000000000000111100 ?
1H
1R
#1200000000
0"
0-
0H
0R
#1210000000
b00000000000000000000000000111101 !
1"
b00000000000000000000000000111101 +
1-
b00000000000000000000000000111101 ?
1H
1R
#1220000000
0"
0-
0H
0R
#1230000000
b00000000000000000000000000111110 !
1"
b00000000000000000000000000111110 +
1-
b00000000000000000000000000111110 ?
1H
1R
#1240000000
0"
0-
0H
0R
#1250000000
b00000000000000000000000000111111 !
1"
b00000000000000000000000000111111 +
1-
b00000000000000000000000000111111 ?
1H
1R
#1260000000
0"
0-
0H
0R
#1270000000
b00000000000000000000000001000000 !
1"
b00000000000000000000000001000000 +
1-
b00000000000000000000000001000000 ?
1H
1R
#1280000000
0"
0-
0H
0R
#1290000000
b00000000000000000000000001000001 !
1"
b00000000000000000000000001000001 +
1-
b00000000000000000000000001000001 ?
1H
1R
#1300000000
0"
0-
0H
0R
#1310000000
b00000000000000000000000001000010 !
1"
b00000000000000000000000001000010 +
1-
b00000000000000000000000001000010 ?
1H
1R
#1320000000
0"
0-
0H
0R
#1330000000
b00000000000000000000000001000011 !
1"
b00000000000000000000000001000011 +
1-
b00000000000000000000000001000011 ?
1H
1R
#1340000000
0"
0-
0H
0R
#1350000000
b00000000000000000000000001000100 !
1"
b00000000000000000000000001000100 +
1-
b00000000000000000000000001000100 ?
1H
1R
#1360000000
0"
0-
0H
0R
#1370000000
b00000000000000000000000001000101 !
1"
b00000000000000000000000001000101 +
1-
b00000000000000000000000001000101 ?
1H
1R
#1380000000
0"
0-
0H
0R
#1390000000
b00000000000000000000000001000110 !
1"
b00000000000000000000000001000110 +
1-
b00000000000000000000000001000110 ?
1H
1R
#1400000000
0"
0-
0H
0R
#1410000000
b00000000000000000000000001000111 !
1"
b00000000000000000000000001000111 +
1-
b00000000000000000000000001000111 ?
1H
1R
#1420000000
0"
0-
0H
0R
#1430000000
b00000000000000000000000001001000 !
1"
b00000000000000000000000001001000 +
1-
b00000000000000000000000001001000 ?
1H
1R
#1440000000
0"
0-
0H
0R
#1450000000
b00000000000000000000000001001001 !
1"
b00000000000000000000000001001001 +
1-
b00000000000000000000000001001001 ?
1H
1R
#1460000000
0"
0-
0H
0R
#1470000000
b00000000000000000000000001001010 !
1"
b00000000000000000000000001001010 +
1-
b00000000000000000000000001001010 ?
1H
1R
#1480000000
0"
0-
0H
0R
#1490000000
b00000000000000000000000001001011 !
1"
b00000000000000000000000001001011 +
1-
b00000000000000000000000001001011 ?
1H
1R
#1500000000
0"
0-
0H
0R
#1510000000
b00000000000000000000000001001100 !
1"
b00000000000000000000000001001100 +
1-
b00000000000000000000000001001100 ?
1H
1R
#1520000000
0"
0-
0H
0R
#1530000000
b00000000000000000000000001001101 !
1"
b00000000000000000000000001001101 +
1-
b00000000000000000000000001001101 ?
1H
1R
#1540000000
0"
0-
0H
0R
#1550000000
b00000000000000000000000001001110 !
1"
b00000000000000000000000001001110 +
1-
b00000000000000000000000001001110 ?
1H
1R
#1560000000
0"
0-
0H
0R
#1570000000
b00000000000000000000000001001111 !
1"
b00000000000000000000000001001111 +
1-
b00000000000000000000000001001111 ?
1H
1R
#1580000000
0"
0-
0H
0R
#1590000000
b00000000000000000000000001010000 !
1"
b00000000000000000000000001010000 +
1-
b00000000000000000000000001010000 ?
1H
1R
#1600000000
0"
0-
0H
0R
#1610000000
b00000000000000000000000001010001 !
1"
b00000000000000000000000001010001 +
1-
b00000000000000000000000001010001 ?
1H
1R
#1620000000
0"
0-
0H
0R
#1630000000
b00000000000000000000000001010010 !
1"
b00000000000000000000000001010010 +
1-
b00000000000000000000000001010010 ?
1H
1R
#1640000000
0"
0-
0H
0R
#1650000000
b00000000000000000000000001010011 !
1"
b00000000000000000000000001010011 +
1-
b00000000000000000000000001010011 ?
1H
1R
#1660000000
0"
0-
0H
0R
#1670000000
b00000000000000000000000001010100 !
1"
b00000000000000000000000001010100 +
1-
b00000000000000000000000001010100 ?
1H
1R
#1680000000
0"
0-
0H
0R
#1690000000
b00000000000000000000000001010101 !
1"
b00000000000000000000000001010101 +
1-
b00000000000000000000000001010101 ?
1H
1R
#1700000000
0"
0-
0H
0R
#1710000000
b00000000000000000000000001010110 !
1"
b00000000000000000000000001010110 +
1-
b00000000000000000000000001010110 ?
1H
1R
#1720000000
0"
0-
0H
0R
#1730000000
b00000000000000000000000001010111 !
1"
b00000000000000000000000001010111 +
1-
b00000000000000000000000001010111 ?
1H
1R
#1740000000
0"
0-
0H
0R
#1750000000
b00000000000000000000000001011000 !
1"
b00000000000000000000000001011000 +
1-
b00000000000000000000000001011000 ?
1H
1R
#1760000000
0"
0-
0H
0R
#1770000000
b00000000000000000000000001011001 !
1"
b00000000000000000000000001011001 +
1-
b00000000000000000000000001011001 ?
1H
1R
#1780000000
0"
0-
0H
0R
#1790000000
b00000000000000000000000001011010 !
1"
b00000000000000000000000001011010 +
1-
b00000000000000000000000001011010 ?
1H
1R
#1800000000
0"
0-
0H
0R
#1810000000
b00000000000000000000000001011011 !
1"
b00000000000000000000000001011011 +
1-
b00000000000000000000000001011011 ?
1H
1R
#1820000000
0"
0-
0H
0R
#1830000000
b00000000000000000000000001011100 !
1"
b00000000000000000000000001011100 +
1-
b00000000000000000000000001011100 ?
1H
1R
#1840000000
0"
0-
0H
0R
#1850000000
b00000000000000000000000001011101 !
1"
b00000000000000000000000001011101 +
1-
b00000000000000000000000001011101 ?
1H
1R
#1860000000
0"
0-
0H
0R
#1870000000
b00000000000000000000000001011110 !
1"
b00000000000000000000000001011110 +
1-
b00000000000000000000000001011110 ?
1H
1R
#1880000000
0"
0-
0H
0R
#1890000000
b00000000000000000000000001011111 !
1"
b00000000000000000000000001011111 +
1-
b00000000000000000000000001011111 ?
1H
1R
#1900000000
0"
0-
0H
0R
#1910000000
b00000000000000000000000001100000 !
1"
b00000000000000000000000001100000 +
1-
b00000000000000000000000001100000 ?
1H
1R
#1920000000
0"
0-
0H
0R
#1930000000
b00000000000000000000000001100001 !
1"
b00000000000000000000000001100001 +
1-
b00000000000000000000000001100001 ?
1H
1R
#1940000000
0"
0-
0H
0R
#1950000000
b00000000000000000000000001100010 !
1"
b00000000000000000000000001100010 +
1-
b00000000000000000000000001100010 ?
1H
1R
#1960000000
0"
0-
0H
0R
#1970000000
b00000000000000000000000001100011 !
1"
b00000000000000000000000001100011 +
1-
b00000000000000000000000001100011 ?
1H
1R
#1980000000
0"
0-
0H
0R
#1990000000
b00000000000000000000000001100100 !
1"
b00000000000000000000000001100100 +
1-
b00000000000000000000000001100100 ?
1H
1R
#2000000000
0"
0-
0H
0R
#2010000000
b00000000000000000000000001100101 !
1"
b00000000000000000000000001100101 +
1-
b00000000000000000000000001100101 ?
1H
1R
#2020000000
0"
0-
0H
0R
#2030000000
b00000000000000000000000001100110 !
1"
b00000000000000000000000001100110 +
1-
b00000000000000000000000001100110 ?
1H
1R
#2040000000
0"
0-
0H
0R
#2050000000
b00000000000000000000000001100111 !
1"
b00000000000000000000000001100111 +
1-
b00000000000000000000000001100111 ?
1H
1R
#2060000000
0"
0-
0H
0R
#2070000000
b00000000000000000000000001101000 !
1"
b00000000000000000000000001101000 +
1-
b00000000000000000000000001101000 ?
1H
1R
#2080000000
0"
0-
0H
0R
#2090000000
b00000000000000000000000001101001 !
1"
b00000000000000000000000001101001 +
1-
b00000000000000000000000001101001 ?
1H
1R
#2100000000
0"
0-
0H
0R
#2110000000
b00000000000000000000000001101010 !
1"
b00000000000000000000000001101010 +
1-
b00000000000000000000000001101010 ?
1H
1R
#2120000000
0"
0-
0H
0R
#2130000000
b00000000000000000000000001101011 !
1"
b00000000000000000000000001101011 +
1-
b00000000000000000000000001101011 ?
1H
1R
#2140000000
0"
0-
0H
0R
#2150000000
b00000000000000000000000001101100 !
1"
b00000000000000000000000001101100 +
1-
b00000000000000000000000001101100 ?
1H
1R
#2160000000
0"
0-
0H
0R
#2170000000
b00000000000000000000000001101101 !
1"
b00000000000000000000000001101101 +
1-
b00000000000000000000000001101101 ?
1H
1R
#2180000000
0"
0-
0H
0R
#2190000000
b00000000000000000000000001101110 !
1"
b00000000000000000000000001101110 +
1-
b00000000000000000000000001101110 ?
1H
1R
#2200000000
0"
0-
0H
0R
#2210000000
b00000000000000000000000001101111 !
1"
b00000000000000000000000001101111 +
1-
b00000000000000000000000001101111 ?
1H
1R
#2220000000
0"
0-
0H
0R
#2230000000
b00000000000000000000000001110000 !
1"
b00000000000000000000000001110000 +
1-
b00000000000000000000000001110000 ?
1H
1R
#2240000000
0"
0-
0H
0R
#2250000000
b00000000000000000000000001110001 !
1"
b00000000000000000000000001110001 +
1-
b00000000000000000000000001110001 ?
1H
1R
#2260000000
0"
0-
0H
0R
#2270000000
b00000000000000000000000001110010 !
1"
b00000000000000000000000001110010 +
1-
b00000000000000000000000001110010 ?
1H
1R
#2280000000
0"
0-
0H
0R
#2290000000
b00000000000000000000000001110011 !
1"
b00000000000000000000000001110011 +
1-
b00000000000000000000000001110011 ?
1H
1R
#2300000000
0"
0-
0H
0R
#2310000000
b00000000000000000000000001110100 !
1"
b00000000000000000000000001110100 +
1-
b00000000000000000000000001110100 ?
1H
1R
#2320000000
0"
0-
0H
0R
#2330000000
b00000000000000000000000001110101 !
1"
b00000000000000000000000001110101 +
1-
b00000000000000000000000001110101 ?
1H
1R
#2340000000
0"
0-
0H
0R
#2350000000
b00000000000000000000000001110110 !
1"
b00000000000000000000000001110110 +
1-
b00000000000000000000000001110110 ?
1H
1R
#2360000000
0"
0-
0H
0R
#2370000000
b00000000000000000000000001110111 !
1"
b00000000000000000000000001110111 +
1-
b00000000000000000000000001110111 ?
1H
1R
#2380000000
0"
0-
0H
0R
#2390000000
b00000000000000000000000001111000 !
1"
b00000000000000000000000001111000 +
1-
b00000000000000000000000001111000 ?
1H
1R
#2400000000
0"
0-
0H
0R
#2410000000
b00000000000000000000000001111001 !
1"
b00000000000000000000000001111001 +
1-
b00000000000000000000000001111001 ?
1H
1R
#2420000000
0"
0-
0H
0R
#2430000000
b00000000000000000000000001111010 !
1"
b00000000000000000000000001111010 +
1-
b00000000000000000000000001111010 ?
1H
1R
#2440000000
0"
0-
0H
0R
#2450000000
b00000000000000000000000001111011 !
1"
b00000000000000000000000001111011 +
1-
b00000000000000000000000001111011 ?
1H
1R
#2460000000
0"
0-
0H
0R
#2470000000
b00000000000000000000000001111100 !
1"
b00000000000000000000000001111100 +
1-
b00000000000000000000000001111100 ?
1H
1R
#2480000000
0"
0-
0H
0R
#2490000000
b00000000000000000000000001111101 !
1"
b00000000000000000000000001111101 +
1-
b00000000000000000000000001111101 ?
1H
1R
#2500000000
0"
0-
0H
0R
#2510000000
b00000000000000000000000001111110 !
1"
b00000000000000000000000001111110 +
1-
b00000000000000000000000001111110 ?
1H
1R
#2520000000
0"
0-
0H
0R
#2530000000
b00000000000000000000000001111111 !
1"
b00000000000000000000000001111111 +
1-
b00000000000000000000000001111111 ?
1H
1R
#2540000000
0"
0-
0H
0R
#2550000000
b00000000000000000000000010000000 !
1"
b00000000000000000000000010000000 +
1-
b00000000000000000000000010000000 ?
1H
1R
#2560000000
0"
0-
0H
0R
#2570000000
b00000000000000000000000010000001 !
1"
b00000000000000000000000010000001 +
1-
b00000000000000000000000010000001 ?
1H
1R
#2580000000
0"
0-
0H
0R
#2590000000
b00000000000000000000000010000010 !
1"
b00000000000000000000000010000010 +
1-
b00000000000000000000000010000010 ?
1H
1R
#2600000000
0"
0-
0H
0R
#2610000000
b00000000000000000000000010000011 !
1"
b00000000000000000000000010000011 +
1-
b00000000000000000000000010000011 ?
1H
1R
#2620000000
0"
0-
0H
0R
#2630000000
b00000000000000000000000010000100 !
1"
b00000000000000000000000010000100 +
1-
b00000000000000000000000010000100 ?
1H
1R
#2640000000
0"
0-
0H
0R
#2650000000
b00000000000000000000000010000101 !
1"
b00000000000000000000000010000101 +
1-
b00000000000000000000000010000101 ?
1H
1R
#2660000000
0"
0-
0H
0R
#2670000000
b00000000000000000000000010000110 !
1"
b00000000000000000000000010000110 +
1-
b00000000000000000000000010000110 ?
1H
1R
#2680000000
0"
0-
0H
0R
#2690000000
b00000000000000000000000010000111 !
1"
b00000000000000000000000010000111 +
1-
b00000000000000000000000010000111 ?
1H
1R
#2700000000
0"
0-
0H
0R
#2710000000
b00000000000000000000000010001000 !
1"
b00000000000000000000000010001000 +
1-
b00000000000000000000000010001000 ?
1H
1R
#2720000000
0"
0-
0H
0R
#2730000000
b00000000000000000000000010001001 !
1"
b00000000000000000000000010001001 +
1-
b00000000000000000000000010001001 ?
1H
1R
#2740000000
0"
0-
0H
0R
#2750000000
b00000000000000000000000010001010 !
1"
b00000000000000000000000010001010 +
1-
b00000000000000000000000010001010 ?
1H
1R
#2760000000
0"
0-
0H
0R
#2770000000
b00000000000000000000000010001011 !
1"
b00000000000000000000000010001011 +
1-
b00000000000000000000000010001011 ?
1H
1R
#2780000000
0"
0-
0H
0R
#2790000000
b00000000000000000000000010001100 !
1"
b00000000000000000000000010001100 +
1-
b00000000000000000000000010001100 ?
1H
1R
#2800000000
0"
0-
0H
0R
#2810000000
b00000000000000000000000010001101 !
1"
b00000000000000000000000010001101 +
1-
b00000000000000000000000010001101 ?
1H
1R
#2820000000
0"
0-
0H
0R
#2830000000
b00000000000000000000000010001110 !
1"
b00000000000000000000000010001110 +
1-
b00000000000000000000000010001110 ?
1H
1R
#2840000000
0"
0-
0H
0R
#2850000000
b00000000000000000000000010001111 !
1"
b00000000000000000000000010001111 +
1-
b00000000000000000000000010001111 ?
1H
1R
#2860000000
0"
0-
0H
0R
#2870000000
b00000000000000000000000010010000 !
1"
b00000000000000000000000010010000 +
1-
b00000000000000000000000010010000 ?
1H
1R
#2880000000
0"
0-
0H
0R
#2890000000
b00000000000000000000000010010001 !
1"
b00000000000000000000000010010001 +
1-
b00000000000000000000000010010001 ?
1H
1R
#2900000000
0"
0-
0H
0R
#2910000000
b00000000000000000000000010010010 !
1"
b00000000000000000000000010010010 +
1-
b00000000000000000000000010010010 ?
1H
1R
#2920000000
0"
0-
0H
0R
#2930000000
b00000000000000000000000010010011 !
1"
b00000000000000000000000010010011 +
1-
b00000000000000000000000010010011 ?
1H
1R
#2940000000
0"
0-
0H
0R
#2950000000
b00000000000000000000000010010100 !
1"
b00000000000000000000000010010100 +
1-
b00000000000000000000000010010100 ?
1H
1R
#2960000000
0"
0-
0H
0R
#2970000000
b00000000000000000000000010010101 !
1"
b00000000000000000000000010010101 +
1-
b00000000000000000000000010010101 ?
1H
1R
#2980000000
0"
0-
0H
0R
#2990000000
b00000000000000000000000010010110 !
1"
b00000000000000000000000010010110 +
1-
b00000000000000000000000010010110 ?
1H
1R
#3000000000
0"
0-
0H
0R
#3010000000
b00000000000000000000000010010111 !
1"
b00000000000000000000000010010111 +
1-
b00000000000000000000000010010111 ?
1H
1R
#3020000000
0"
0-
0H
0R
